{
    "page": 2,
    "limit": 1,
    "pages": 3,
    "total": 3,
    "_links": {
        "self": "\/shop-api\/taxon-products\/BRAND?channel=WEB_GB&limit=1&page=2",
        "first": "\/shop-api\/taxon-products\/BRAND?channel=WEB_GB&limit=1&page=1",
        "last": "\/shop-api\/taxon-products\/BRAND?channel=WEB_GB&limit=1&page=3",
        "next": "\/shop-api\/taxon-products\/BRAND?channel=WEB_GB&limit=1&page=3"
    },
    "items": [
        {
            "code": "LOGAN_MUG_CODE",
            "name": "Logan Mug",
            "slug": "logan-mug",
            "description": "Some description Lorem ipsum dolor sit amet.",
            "averageRating": 0,
            "taxons": {
                "main": "MUG",
                "others": [
                    "MUG",
                    "BRAND"
                ]
            },
            "variants": {
                "LOGAN_MUG_CODE": {
                    "code": "LOGAN_MUG_CODE",
                    "name": "Logan Mug",
                    "axis": [],
                    "nameAxis": {},
                    "price": {
                        "current": 1999,
                        "currency": "GBP"
                    },
                    "images": [
                        {
                            "code": "thumbnail",
                            "path": "\/uo\/mug.jpg"
                        }
                    ]
                }
            },
            "attributes": [
                {
                    "code": "MUG_MATERIAL_CODE",
                    "name": "Mug material",
                    "value": "Wood"
                }
            ],
            "associations": [],
            "images": [
                {
                    "code": "thumbnail",
                    "path": "\/uo\/mug.jpg"
                }
            ],
            "_links": {
                "self": {
                    "href": "\/shop-api\/products-by-slug\/logan-mug"
                }
            }
        }
    ]
}
