{
    "page": 1,
    "limit": 10,
    "pages": 3,
    "total": 25,
    "_links": {
        "self": "\/shop-api\/products\/by-code\/LOGAN_MUG_CODE\/reviews?page=1&limit=10",
        "first": "\/shop-api\/products\/by-code\/LOGAN_MUG_CODE\/reviews?page=1&limit=10",
        "last": "\/shop-api\/products\/by-code\/LOGAN_MUG_CODE\/reviews?page=3&limit=10",
        "next": "\/shop-api\/products\/by-code\/LOGAN_MUG_CODE\/reviews?page=2&limit=10"
    },
    "items": [
        {
            "title": "Nice mug",
            "rating": @integer@,
            "comment": "@string@",
            "author": "oliver@queen.com",
            "createdAt": "@string@.isDateTime()"
        },
        {
            "title": "Nice mug",
            "rating": @integer@,
            "comment": "@string@",
            "author": "oliver@queen.com",
            "createdAt": "@string@.isDateTime()"
        },
        {
            "title": "Nice mug",
            "rating": @integer@,
            "comment": "@string@",
            "author": "oliver@queen.com",
            "createdAt": "@string@.isDateTime()"
        },
        {
            "title": "Nice mug",
            "rating": @integer@,
            "comment": "@string@",
            "author": "oliver@queen.com",
            "createdAt": "@string@.isDateTime()"
        },
        {
            "title": "Nice mug",
            "rating": @integer@,
            "comment": "@string@",
            "author": "oliver@queen.com",
            "createdAt": "@string@.isDateTime()"
        },
        {
            "title": "Nice mug",
            "rating": @integer@,
            "comment": "@string@",
            "author": "oliver@queen.com",
            "createdAt": "@string@.isDateTime()"
        },
        {
            "title": "Nice mug",
            "rating": @integer@,
            "comment": "@string@",
            "author": "oliver@queen.com",
            "createdAt": "@string@.isDateTime()"
        },
        {
            "title": "Nice mug",
            "rating": @integer@,
            "comment": "@string@",
            "author": "oliver@queen.com",
            "createdAt": "@string@.isDateTime()"
        },
        {
            "title": "Nice mug",
            "rating": @integer@,
            "comment": "@string@",
            "author": "oliver@queen.com",
            "createdAt": "@string@.isDateTime()"
        },
        {
            "title": "Nice mug",
            "rating": @integer@,
            "comment": "@string@",
            "author": "oliver@queen.com",
            "createdAt": "@string@.isDateTime()"
        }
    ]
}
